<?xml version="1.0" encoding="utf-8"?>
<!-- Generator: Adobe Illustrator 16.0.0, SVG Export Plug-In . SVG Version: 6.00 Build 0)  -->
<!DOCTYPE svg PUBLIC "-//W3C//DTD SVG 1.1//EN" "http://www.w3.org/Graphics/SVG/1.1/DTD/svg11.dtd" [
	<!ENTITY ns_extend "http://ns.adobe.com/Extensibility/1.0/">
	<!ENTITY ns_ai "http://ns.adobe.com/AdobeIllustrator/10.0/">
	<!ENTITY ns_graphs "http://ns.adobe.com/Graphs/1.0/">
	<!ENTITY ns_vars "http://ns.adobe.com/Variables/1.0/">
	<!ENTITY ns_imrep "http://ns.adobe.com/ImageReplacement/1.0/">
	<!ENTITY ns_sfw "http://ns.adobe.com/SaveForWeb/1.0/">
	<!ENTITY ns_custom "http://ns.adobe.com/GenericCustomNamespace/1.0/">
	<!ENTITY ns_adobe_xpath "http://ns.adobe.com/XPath/1.0/">
]>
<svg version="1.1" id="Capa_1" xmlns:x="&ns_extend;" xmlns:i="&ns_ai;" xmlns:graph="&ns_graphs;"
	 xmlns="http://www.w3.org/2000/svg" xmlns:xlink="http://www.w3.org/1999/xlink" x="0px" y="0px" width="11.641px" height="9px"
	 viewBox="0 0 11.641 9" enable-background="new 0 0 11.641 9" xml:space="preserve">
<metadata><?xpacket begin="﻿" id="W5M0MpCehiHzreSzNTczkc9d"?>
<x:xmpmeta xmlns:x="adobe:ns:meta/" x:xmptk="Adobe XMP Core 5.3-c011 66.145661, 2012/02/06-14:56:27        ">
   <rdf:RDF xmlns:rdf="http://www.w3.org/1999/02/22-rdf-syntax-ns#">
      <rdf:Description rdf:about=""
            xmlns:xmpMM="http://ns.adobe.com/xap/1.0/mm/"
            xmlns:stRef="http://ns.adobe.com/xap/1.0/sType/ResourceRef#"
            xmlns:stEvt="http://ns.adobe.com/xap/1.0/sType/ResourceEvent#">
         <xmpMM:DocumentID>xmp.did:A00973A5DB6FEC11B514BC242D8564AC</xmpMM:DocumentID>
         <xmpMM:InstanceID>xmp.iid:A00973A5DB6FEC11B514BC242D8564AC</xmpMM:InstanceID>
         <xmpMM:OriginalDocumentID>xmp.did:1ECD31D57657EC119840A02C163C80E2</xmpMM:OriginalDocumentID>
         <xmpMM:RenditionClass>proof:pdf</xmpMM:RenditionClass>
         <xmpMM:DerivedFrom rdf:parseType="Resource">
            <stRef:instanceID>uuid:bb807ace-20a7-4cc7-bc6a-5fcedb7fa5e9</stRef:instanceID>
            <stRef:documentID>xmp.did:1ECD31D57657EC119840A02C163C80E2</stRef:documentID>
            <stRef:originalDocumentID>xmp.did:1ECD31D57657EC119840A02C163C80E2</stRef:originalDocumentID>
            <stRef:renditionClass>proof:pdf</stRef:renditionClass>
         </xmpMM:DerivedFrom>
         <xmpMM:History>
            <rdf:Seq>
               <rdf:li rdf:parseType="Resource">
                  <stEvt:action>saved</stEvt:action>
                  <stEvt:instanceID>xmp.iid:1ECD31D57657EC119840A02C163C80E2</stEvt:instanceID>
                  <stEvt:when>2021-12-07T13:00:43-03:00</stEvt:when>
                  <stEvt:softwareAgent>Adobe Illustrator CS6 (Windows)</stEvt:softwareAgent>
                  <stEvt:changed>/</stEvt:changed>
               </rdf:li>
               <rdf:li rdf:parseType="Resource">
                  <stEvt:action>saved</stEvt:action>
                  <stEvt:instanceID>xmp.iid:A00973A5DB6FEC11B514BC242D8564AC</stEvt:instanceID>
                  <stEvt:when>2022-01-07T14:02:50-03:00</stEvt:when>
                  <stEvt:softwareAgent>Adobe Illustrator CS6 (Windows)</stEvt:softwareAgent>
                  <stEvt:changed>/</stEvt:changed>
               </rdf:li>
            </rdf:Seq>
         </xmpMM:History>
      </rdf:Description>
      <rdf:Description rdf:about=""
            xmlns:dc="http://purl.org/dc/elements/1.1/">
         <dc:format>image/svg+xml</dc:format>
         <dc:title>
            <rdf:Alt>
               <rdf:li xml:lang="x-default">logo-sintra</rdf:li>
            </rdf:Alt>
         </dc:title>
      </rdf:Description>
      <rdf:Description rdf:about=""
            xmlns:xmp="http://ns.adobe.com/xap/1.0/"
            xmlns:xmpGImg="http://ns.adobe.com/xap/1.0/g/img/">
         <xmp:CreatorTool>Adobe Illustrator CS6 (Windows)</xmp:CreatorTool>
         <xmp:CreateDate>2022-01-07T14:02:48-03:00</xmp:CreateDate>
         <xmp:MetadataDate>2022-01-07T14:02:50-03:00</xmp:MetadataDate>
         <xmp:ModifyDate>2022-01-07T14:02:50-03:00</xmp:ModifyDate>
         <xmp:Thumbnails>
            <rdf:Alt>
               <rdf:li rdf:parseType="Resource">
                  <xmpGImg:width>256</xmpGImg:width>
                  <xmpGImg:height>196</xmpGImg:height>
                  <xmpGImg:format>JPEG</xmpGImg:format>
                  <xmpGImg:image>/9j/4AAQSkZJRgABAgEASABIAAD/7QAsUGhvdG9zaG9wIDMuMAA4QklNA+0AAAAAABAASAAAAAEA&#xA;AQBIAAAAAQAB/+4ADkFkb2JlAGTAAAAAAf/bAIQABgQEBAUEBgUFBgkGBQYJCwgGBggLDAoKCwoK&#xA;DBAMDAwMDAwQDA4PEA8ODBMTFBQTExwbGxscHx8fHx8fHx8fHwEHBwcNDA0YEBAYGhURFRofHx8f&#xA;Hx8fHx8fHx8fHx8fHx8fHx8fHx8fHx8fHx8fHx8fHx8fHx8fHx8fHx8fHx8f/8AAEQgAxAEAAwER&#xA;AAIRAQMRAf/EAaIAAAAHAQEBAQEAAAAAAAAAAAQFAwIGAQAHCAkKCwEAAgIDAQEBAQEAAAAAAAAA&#xA;AQACAwQFBgcICQoLEAACAQMDAgQCBgcDBAIGAnMBAgMRBAAFIRIxQVEGE2EicYEUMpGhBxWxQiPB&#xA;UtHhMxZi8CRygvElQzRTkqKyY3PCNUQnk6OzNhdUZHTD0uIIJoMJChgZhJRFRqS0VtNVKBry4/PE&#xA;1OT0ZXWFlaW1xdXl9WZ2hpamtsbW5vY3R1dnd4eXp7fH1+f3OEhYaHiImKi4yNjo+Ck5SVlpeYmZ&#xA;qbnJ2en5KjpKWmp6ipqqusra6voRAAICAQIDBQUEBQYECAMDbQEAAhEDBCESMUEFURNhIgZxgZEy&#xA;obHwFMHR4SNCFVJicvEzJDRDghaSUyWiY7LCB3PSNeJEgxdUkwgJChgZJjZFGidkdFU38qOzwygp&#xA;0+PzhJSktMTU5PRldYWVpbXF1eX1RlZmdoaWprbG1ub2R1dnd4eXp7fH1+f3OEhYaHiImKi4yNjo&#xA;+DlJWWl5iZmpucnZ6fkqOkpaanqKmqq6ytrq+v/aAAwDAQACEQMRAD8A9U4q7FXYq7FXYq7FXYq7&#xA;FXYq7FXYq7FXAggEGoO4IxV2KuxV2KuxV2KuxVxIAqTQeJxV2KuxV2KuxV2KuxV2KuxV2KuxV2Ku&#xA;xV2KuxV2KuxV2KuxV2KuxV2KuxV2Kvlv/nJH/nJH0PrXkryVdfv/AIodZ1mFvsdnt7dx+12dx06D&#xA;epCrFv8AnHL/AJyNk8syW/lHzdcF/LjkR6dqMhJayYnZHPeA/wDCf6vRV9lxyRyxrJGweNwGR1IK&#xA;lSKggjqDiq7FXYq7FXYqpXV1bWltLdXUqQWsCNLPPKwRERBVmZjQAACpJxV8S/8AOQv/ADkTd+db&#xA;uTy95amktvKdtIOcy1SS+kQ1EjdCsSkVRO/2m3oFVen/APOOH/OR666tt5N85XIGtgCLStVlNBdg&#xA;bLDMx/3f/K37f+v9pV9IYq7FXYq7FXYq7FXYq7FXYq7FXYq7FXYq7FXYq7FXYq7FXYq7FXYq+W/+&#xA;ckf+ckfQ+teSvJV1+/8Aih1nWYW+x2e3t3H7XZ3HToN6kKvk/FXYq+gP+ceP+cjrrynPb+V/Nlw8&#xA;/leQiOzvHqz2BOwHi0Hiv7PUbbYq+0YJ4biGOeCRZYJVDxSoQyMjCqsrDYgjcEYqvxV2KqV1dW1p&#xA;bS3V1KkFrAjSzzysEREQVZmY0AAAqScVfEn/ADkP/wA5D3Pne5l8ueXJXg8owPSWUVR790OzuNiI&#xA;QRVEPX7Tb0CqvC8VbVmVgykhgagjYgjFX2H/AM44f85Hrrq23k3zlcga2AItK1WU0F2BssMzH/d/&#xA;8rft/wCv9pV9IYq7FXYq7FXYq7FXYq7FXYq7FXYq7FXYq7FXYq7FXYq7FXYq+W/+ckf+ckfQ+teS&#xA;vJV1+/8Aih1nWYW+x2e3t3H7XZ3HToN6kKvk/FXYq7FXYq9+/wCcdf8AnIqbyhND5W80zNL5Wlbj&#xA;aXbVZ7B2P3mAn7S/s9R3BVfacE8NxDHPBIssEqh4pUIZGRhVWVhsQRuCMVW3V1bWltLdXUqQWsCN&#xA;LPPKwRERBVmZjQAACpJxV8Sf85D/APOQ9z53uZfLnlyV4PKMD0llFUe/dDs7jYiEEVRD1+029Aqr&#xA;wvFXYq7FW1ZlYMpIYGoI2IIxV9h/844f85Hrrq23k3zlcga2AItK1WU0F2BssMzH/d/8rft/6/2l&#xA;X0hirsVdirsVdirsVdirsVdirsVdirsVdirsVdirsVdir5b/AOckf+ckfQ+teSvJV1+/+KHWdZhb&#xA;7HZ7e3cftdncdOg3qQq+T8VdirsVdirsVVrS0ury6htLSF7i6uHWK3t4lLySSOeKoirUszE0AGKv&#xA;v/8AInyb5j/L/wDLVLXzhqwZ4w921tK6ehpsHHk0PrHrx3Zzy4A7LsOTKvm7/nIf/nIe5873Mvlz&#xA;y5K8HlGB6SyiqPfuh2dxsRCCKoh6/abegVV4XirsVdirsVdirasysGUkMDUEbEEYq+w/+ccP+cj1&#xA;11bbyb5yuQNbAEWlarKaC7A2WGZj/u/+Vv2/9f7Sr6QxV2KuxV2KuxV2KuxV2KuxV2KuxV2KuxV2&#xA;KuxV8u/85K/85GvaPd+R/JtzS5FYda1iFt4+z20DL+32kf8AZ+yN60VfJuKuxV2KuxV2Kq1paXV5&#xA;dQ2lpC9xdXDrFb28Sl5JJHPFURVqWZiaADFX2x+Qf5B6X+XOlnzb5tMJ8zmFpJJJGX0NMg4kuquT&#xA;w9ThX1Za0AqqnjyZ1Xiv/OQ//OQ9z53uZfLnlyV4PKMD0llFUe/dDs7jYiEEVRD1+029AqrwvFXY&#xA;q7FXYq7FXYq7FV0ckkUiyRsUkQhkdSQysDUEEdCMVfZn/OOX/ORsfmeO38o+brgJ5jQCPTtRkIC3&#xA;qgbI57Tj/h/9bqq+hsVdirsVdirsVdirsVdirsVdirsVdirsVfMn/OSP/OSP6O+teSvJV1/uR+KH&#xA;WdZhb/efs1vbsP8AdvZ3H2Og+L7Kr5GxV2KuxV2KuxVWtLS6vLqG0tIXuLq4dYre3iUvJJI54qiK&#xA;tSzMTQAYq+2PyD/IPS/y50s+bfNphPmcwtJJJIy+hpkHEl1VyeHqcK+rLWgFVU8eTOq8V/5yH/5y&#xA;HufO9zL5c8uSvB5Rgeksoqj37odncbEQgiqIev2m3oFVeF4q7FXYq7FXYq7FXYq7FXYqujkkikWS&#xA;NikiEMjqSGVgaggjoRir7M/5xy/5yNj8zx2/lHzdcBPMaAR6dqMhAW9UDZHPacf8P/rdVX0NirsV&#xA;dirsVdirsVdirsVdirsVdir5k/5yR/5yR/R31ryV5Kuv9yPxQ6zrMLf7z9mt7dh/u3s7j7HQfF9l&#xA;V8jYq7FXYq7FXYqrWlpdXl1DaWkL3F1cOsVvbxKXkkkc8VRFWpZmJoAMVfa35D/kPpH5a6Q/nDzg&#xA;8A8yiBpZZZWX0NMg4kuquTx9XjX1Za0A+Ffh5M6rxX/nIP8A5yKuvPUz+XvLjSWvlGF/3rsCkt86&#xA;HZ5B1WIEVRD/AKzb0CqvDcVdirsVdirsVRdhpWp6gLk2FpNdizga6u/QjaT0oIyA8snEHii8hVjs&#xA;MVQmKuxV2KuxV2Kro5JIpFkjYpIhDI6khlYGoII6EYq+zP8AnHL/AJyNj8zx2/lHzdcBPMaAR6dq&#xA;MhAW9UDZHPacf8P/AK3VV9DYq7FXYq7FXYq7FXYq7FXYq+ZP+ckf+ckf0d9a8leSrr/cj8UOs6zC&#xA;3+8/Zre3Yf7t7O4+x0HxfZVfI2KuxV2KuxV2Kqtra3N3cxWtrE9xc3DrFBBEpeR5HPFURVqWZiaA&#xA;DFX2r+Qn5EaV+W2kP5x84tAvmQQNLJJMy+hplvxJdQ5PH1StfUk7D4V25F1XiH/OQf8AzkHe+fr1&#xA;9C0J3tvJ9s+w3SS+kQ7SyjqIwd44z/rN8VAqrxTFXYq7FXYq7FU+8k+SfMXnTzFbaBoFsbi9uDVm&#xA;NRFDECOc0z0PFFrufoFSQMVfd/5c/l75D/KPy3a6ZJd28d/q80dtdandskUl9dyA8IUDn7PURxCv&#xA;0kklV4F/zkf/AM44NoLXPnLybbFtCYmXVdKiFTZk7tNCo/3R/Mv+6/8AU+wq+b8VdirsVdirsVXR&#xA;ySRSLJGxSRCGR1JDKwNQQR0IxV9mf845f85Gx+Z47fyj5uuAnmNAI9O1GQgLeqBsjntOP+H/ANbq&#xA;q+hsVdirsVdirsVdirsVfMn/ADkj/wA5I/o7615K8lXX+5H4odZ1mFv95+zW9uw/3b2dx9joPi+y&#xA;q+RsVdirsVdirsVVbW1ubu5itbWJ7i5uHWKCCJS8jyOeKoirUszE0AGKvtT8hvyG0n8uNJbzl5ya&#xA;BfMawNM7zMvoaZBxJcByePq8a+pJWgHwrtyZ1XiP/OQf/OQd75+vX0LQne28n2z7DdJL6RDtLKOo&#xA;jB3jjP8ArN8VAqrxTFXYq7FXYq7FU68n+T/MHm/zBbaDoNsbq/ujsOiRoPtSyt+yi9z/ABxV9v8A&#xA;lfy35A/ID8uJ77U7hWuGCtqWoBR9Yvbqh4W8CE1I6iNK0AqzEfE2Kvjr81vzT8wfmN5mk1fVGMNn&#xA;Fyj0vTFblFawk/ZXYcnagLvSrHwAUBV9Cf8AOOP/ADkkmpJb+SvPN0P0hQQ6RrVw21wOi29y7f7t&#xA;7I5+30Px0LqpD/zkj/zjcdMN1508l2tdNPKbWNHhX/efu08Cj/dXd0H2Oo+H7Kr5lxV2KuxV2Kux&#xA;VdHJJFIskbFJEIZHUkMrA1BBHQjFX2Z/zjl/zkbH5njt/KPm64CeY0Aj07UZCAt6oGyOe04/4f8A&#xA;1uqr6GxV2KuxV2KuxV8yf85I/wDOSP6O+teSvJV1/uR+KHWdZhb/AHn7Nb27D/dvZ3H2Og+L7Kr5&#xA;GxV2KuxV2KuxVVtbW5u7mK1tYnuLm4dYoIIlLyPI54qiKtSzMTQAYq+1PyG/IbSfy40lvOXnJoF8&#xA;xrA0zvMy+hpkHElwHJ4+rxr6klaAfCu3JnVeI/8AOQf/ADkHe+fr19C0J3tvJ9s+w3SS+kQ7Syjq&#xA;Iwd44z/rN8VAqrxTFXYq7FXYq7FU28q+Vdd81a7a6Hodq13qN23GONegH7Tu3RUUbsx6Yq+4/KXl&#xA;HyD+Qf5eXWqahOr3QQPqmpkD17uehKW9urEbV2jSv+Ux6nFXx7+bP5s+Y/zI8xtqept6FhByTS9L&#xA;RiYraIn6Ocj0HN6fF7KFUKsIxV2Kvq//AJxu/wCckROLXyT52uqynjDo2szN9vstvcMf2uyOevQ7&#xA;0JVQH/ORX/OM/wBSF35y8kW9bTebVdDiX+6HV57ZR+x3aMfZ6r8Oyqvl/FXYq7FXYq7FV0ckkUiy&#xA;RsUkQhkdSQysDUEEdCMVfZn/ADjl/wA5Gx+Z47fyj5uuAnmNAI9O1GQgLeqBsjntOP8Ah/8AW6qv&#xA;obFXYq7FXzJ/zkj/AM5I/o7615K8lXX+5H4odZ1mFv8Aefs1vbsP929ncfY6D4vsqvkbFXYq7FXY&#xA;q7FVW1tbm7uYrW1ie4ubh1iggiUvI8jniqIq1LMxNABir7U/Ib8htJ/LjSW85ecmgXzGsDTO8zL6&#xA;GmQcSXAcnj6vGvqSVoB8K7cmdV4j/wA5B/8AOQd75+vX0LQne28n2z7DdJL6RDtLKOojB3jjP+s3&#xA;xUCqvFMVdirsVdirsVTbyt5W1zzTrtpoWh2rXepXjcYol2AA3Z3Y7KijdmPQYq+3vJPknyF+QnkK&#xA;51jWLlG1BkU6rqpWsk8h3S1tUNG48h8K9/tN/kqvkn84Pzg8wfmT5gN7ek22k2xZdK0pWqkKH9pv&#xA;5pW/ab6BtirAcVdirsVdir6o/wCcdf8AnJlw9p5N883I9OiwaTrkp3B6LDdOT06BZP8AgvEKrf8A&#xA;nI//AJxsaNrnzn5HtC0bEy6xokC1Kk7tcWyL+z3eMdOo2qAq+WcVdirsVdirsVXRySRSLJGxSRCG&#xA;R1JDKwNQQR0IxV9mf845f85Gx+Z47fyj5uuAnmNAI9O1GQgLeqBsjntOP+H/ANbqq+hsVadFdSjC&#xA;qsCGB6EHFXw//wA5E/8AOPc/ka6k8yeXkabyjcyASRElnsZZDtG5O7RMdkft9lt6FlXhmKuxV2Ku&#xA;xV2Kpt5U80ax5W8xWPmDR5RDqWnyepA7KHU1BVlZT1VlYqfY4q+6PLvmjyL+fn5aXumzc7d50SLV&#xA;9NWSlzZ3AIeORGp8ac05RvTi1KMK8lCr4z/NP8rPMf5c+Y30jV09W2l5PpupIpENzCD9pevF1qA6&#xA;E1U+IIJVYbirsVdirsVTLy55c1rzJrVroui2r3mpXj+nBBH1J6lmJ2VVG7MdgNzir7f/AC6/LryR&#xA;+Rfki617XrqI6oYg2r6uwqSTutraqfi48tgB8TtuewVV8p/nR+c2t/mXr4uJg1poVmzLpWmVrwU7&#xA;GSUjZpXA3PQdB4lV51irsVdirsVdir1v8hvyG1T8xtUF9fCSz8pWcgF7egUedxube3J/a/mboo96&#xA;DFX0f+eH546L+V2gw+WvLwjm8y/V0hsbUkyJZQKgSOWfkSSeI+BGNW6nbqq+Grq6uLu6murhzJcX&#xA;DtLNIerO5LMxp4k4qpYq7FXYq7FXYq9m/wCcfPyF1Tz7qket6l6tj5UsZQXuUJjlupYzX0rdhuAD&#xA;9uQdOg+Loq+7UUIiqK0UACpJO3iTUnFW8VUL6xstQsp7G+gS5s7lGiuLeVQ8ckbijKynYgjFXw7/&#xA;AM5B/wDOPl75BvX13Qke58n3L7Hd5LGRztFKepjJ2jkP+q3xULKvFMVdirsVdirsVT/yP538w+Sv&#xA;Mdtr+g3Bgvbc0dDUxzREgvDMv7Ub03HbYijAEKvtvTdU/Lv/AJyD/Laa2mT05l4/W7UlTd6deUPC&#xA;RGpup34PSjrUGh5KFXxn+Zn5Z+ZPy98ySaNrMfJGq9hfoD6NzDWgdCehH7S9VP0EqsRxV2Ko/QtC&#xA;1fXtXtdH0e1e91K9cRW1tEKszHfvsABuzHYDc7Yq+4vyt/LTyj+SPki817zFdwDVTEJNa1hh8Ma7&#xA;cbW325ledAABykft9lQq+Vvzs/OfWPzK8wmU+paeXbNiNJ0xiPhHT1puPwmV+/XiPhB6kqvN8Vdi&#xA;rsVdirsVeqfkT+R2rfmRrYuLhXtfKljIP0nf9DIRRvq0B7yMPtHogNTuVVlX0v8AnH+b/lj8oPKs&#xA;Hlry1BCuum39LSdMiA9O0ioQLiYb991B3duvc4q+HtT1PUNU1C41HUbiS7vruRpbm5lYs7uxqWYn&#xA;FULirsVdirsVdir2T8gPyA1D8wtQXV9XWS08oWklJphVXu3U7wwn+X+d+3Qb9FX3Ppmmafpen2+n&#xA;adbx2ljaRrFbW0ShURFFAqgYqicVdirsVUL6xstQsp7G+gS5s7lGiuLeVQ8ckbijKynYgjFXw5/z&#xA;kJ/zj/d/l/etrmiK9x5Pu5OKEktJZSv0hlJ3ZD/ut/8AYtvQsq8VxV2KuxV2KuxVkXkLz55i8jeZ&#xA;LbX9CnMVzCeM0LVMU8JILwzL+0jU+YNCKMAcVfbSTfl3/wA5B/lo8YPpyCnNPhN3pt4BsfcHx6Ov&#xA;geir4r/MX8uvMnkHzJNoeuQ8XWr2l2gPo3ENaLLEx6g9x1B2OKpHo+j6prOqW2laVbSXmo3kgitr&#xA;aIVd3PYfrJOwG5xV9x/lR+VXlH8l/J115j8xXMI1n6v6ms6vJ9iFNj9Wt+/HlQbfFI1P8lQq+XPz&#xA;u/O7W/zL1sAB7LyzZOTpelk713X6xccSQ0zA/JB8K/tMyrzPFXYq7FXYq7FXqX5GfkZrH5lax603&#xA;Oy8q2TgalqQFGdhQ/V7eoIaVgdz0Qbn9lWVfS/5t/m35T/Jnyna+V/K9rANaEHp6VpUe8dtGa/6R&#xA;cb8jVqt8R5SNUk9Tir4i1jWNU1nVLnVdVuZLzUbyQy3NzKau7nuf1ADYDYYqg8VdirsVdirsVeyf&#xA;kB+QGofmFqC6vq6yWnlC0kpNMKq926neGE/y/wA79ug36KvufTNM0/S9Pt9O063jtLG0jWK2tolC&#xA;oiKKBVAxVE4q7FXYq7FXYqhtT0zT9U0+407UbeO7sbuNorm2lUMjowoVYHFXwx+f/wCQGofl7qDa&#xA;vpCyXflC7kpDMas9o7HaGY/y/wAj9+h36qvG8VdirsVdirsVZR+XP5ieYfIPmaDXdFlIZCEu7Rif&#xA;SuYK1aKQeB7Hqp3GKvtS9tfy8/5yD/LUNBLwkG8MtFN3p14F3V18D+0K0deh6EKpf+VX5Q+UPyW8&#xA;s3vmXzJe28mrpEW1LWWB9KCGu0NsCOfxGg2HJ2oKdBir5l/PP889Y/MrWPRh52XlWycnTdNJozsK&#xA;j6xcUJDSsDsOiDYftMyry3FXYq7FXYq7FXpv5H/klrP5la4GYPZ+WLGRf0rqYFCejfV4KghpmX6E&#xA;HxN+yrKvqL82PzV8o/kx5OtvLnly2hXWTbmPRdIi3SBDUfWbjqePKp+L4pGrv9pgq+HNY1jVNZ1S&#xA;51XVbmS81G8kMtzcymru57n9QA2A2GKoPFXYq7FXYq7FXsn5AfkBqH5hagur6uslp5QtJKTTCqvd&#xA;up3hhP8AL/O/boN+ir7n0zTNP0vT7fTtOt47SxtI1itraJQqIiigVQMVROKuxV2KuxV2KuxV2Kob&#xA;U9M0/VNPuNO1G3ju7G7jaK5tpVDI6MKFWBxV8L/85AfkFffl5qJ1bSg915QvZONvKfiktZGqRBMe&#xA;4/kfv0O/VV45irsVdirsVdirLvyx/MzzF+XvmWLWtHkLRkhNQsGYiK5hrUxv1of5WpVT9IKrKfz0&#xA;/PjVfzL1CO1to3sPK9k3qWenuR6kktCvrzlSQXoxCgGij3JJVeUYq7FXYq7FXYq9M/JH8kdb/MvW&#xA;ySXsvLNk4GqaoBvXZvq9vyBDTMD8kHxN+yrKvqL80vzS8nfkl5OtPLflu0g/THocNH0dKlIkJNbm&#xA;5NeRUtU7nlI1d/tMFXxBruu6vr2r3WsaxdPe6leuZbm5lNWZjt22AA2VRsBsNsVQGKuxV2KuxV2K&#xA;vY/+cf8A8gr78w9RGraqHtfKFlJxuJR8Ml1ItCYIT2H879ug36KvujTNM0/S9Pt9O063jtLG0jWK&#xA;2tolCoiKKBVAxVE4q7FXYq7FXYq7FXYq7FXYqg9Y0fS9Z0u50rVbaO8068jMVzbSiqOh7H9YI3B3&#xA;GKvhP8+fyG1T8udUN/YCS88pXklLO8O7wOdxBOR3/lbow96jFXkeKuxV2KuxV2KuxV2KuxV2KuxV&#xA;6P8Akr+TGt/mVr4iQPa+XrN1OramBTivX0oSQQ0zjp2XqfAqvq38zfzK8mfkl5ItdC0G1hXVPQMe&#xA;h6NHuFG4NzcGvLhzqWJPKRq7/aYKvhrXdd1fXtXutY1i6e91K9cy3NzKaszHbtsABsqjYDYbYqgM&#xA;VdirsVdirsVeufkN+Q2qfmNqgv78SWflKzkpeXg2edxuYICe/wDM3RR70GKvuzR9H0vRtLttK0q2&#xA;js9Os4xFbW0QoiIOw/WSdydziqMxV2KuxV2KuxV2KuxV2KuxV2KuxVB6xo+l6zpdzpWq20d5p15G&#xA;Yrm2lFUdD2P6wRuDuMVfCX59/kRqP5caoL6x53flO+kK2N227wuQW+rz0/aoDxb9oDxqMVeSYq7F&#xA;XYq7FXYq7FXYq7FXo35Mfkxrv5la76MPK00C0YHVNUI2QdfSirs0rDoO3U+6r6r/ADF/MXyR+Rfk&#xA;i10HQbWI6oYiukaQpqSTs11dMPi48tyT8TtsO5VV8QeY/MeteZNauta1q6e81K8f1J55OpPQKoGy&#xA;qo2VRsBsMVS3FXYq7FXYq7FXrn5DfkNqn5jaoL+/Eln5Ss5KXl4NnncbmCAnv/M3RR70GKvuzR9H&#xA;0vRtLttK0q2js9Os4xFbW0QoiIOw/WSdydziqMxV2KuxV2KuxV2KuxV2KuxV2KuxV2KuxVAa9oOk&#xA;a/pF1o+sWqXum3qGO5tpBVWU/iCDurDcHcb4q+Dvz0/IvV/y21f6xb873yreuRp+oEVaNjv9XuKb&#xA;CQDoejjcdwFXleKuxV2KuxV2KuxVn/5O/lDrv5k+Y1sbQNb6Rasj6vqZHwwxE/ZWuzSuAeC/Sdgc&#xA;VfXP5gefPJH5F+QbbSdHtY1vjE0eiaSpqZJP2ri4b7XEMaux3Y7D2VfDPmPzHrXmTWrrWtaunvNS&#xA;vH9SeeTqT0CqBsqqNlUbAbDFUtxV2KuxV2KuxV65+Q35Dap+Y2qC/vxJZ+UrOSl5eDZ53G5ggJ7/&#xA;AMzdFHvQYq+7NH0fS9G0u20rSraOz06zjEVtbRCiIg7D9ZJ3J3OKozFXYq7FXYq7FXYq7FXYq7FX&#xA;Yq7FXYq7FXYq7FUBr2g6Rr+kXWj6xape6beoY7m2kFVZT+IIO6sNwdxvir4N/PX8jdW/LXWBPAXv&#xA;PK19IV03UCPiRiC31eemwkCg0PRwKjuAq8sxV2KuxV2Ks5/KX8pfMX5keYl03TVMGnwFX1TVHUmK&#xA;3iJ+jlI1DwSu/sASFX375I8keXfJXl230HQbcQWcAq7mhlmlIHOWV6Dk7U3P0CgAGKpV+an5V+XP&#xA;zG8uPpOrJ6V1FyfTdSRQZbaUj7S9OSNQc0rRh4EAhV8A+fvIPmPyN5jn0HXoPSuYvihmWpiniJIW&#xA;aFiByVqfMHY0IIxVjmKuxV2KuxV65+Q35Dap+Y2qC/vxJZ+UrOSl5eDZ53G5ggJ7/wAzdFHvQYq+&#xA;7NH0fS9G0u20rSraOz06zjEVtbRCiIg7D9ZJ3J3OKozFXYq7FXYq7FXYq7FXYq7FXYq7FXYq7FXY&#xA;q7FXYq7FUt8yeW9E8y6JdaJrdql7pt6nCeB+/cMpG6sp3VhuDuMVfBP52/klrf5aa3+3e+Wr1z+i&#xA;9Up9PoT02WVR9DjcdwqrzPFXYqzL8rPys8x/mN5jTSNIT0raLi+pak6kw20JP2m6cnahCIDVj4AE&#xA;hV+gnkjyR5d8leXbfQdBtxBZwCruaGWaUgc5ZXoOTtTc/QKAAYqn2KuxVhn5qflX5c/Mby4+k6sn&#xA;pXUXJ9N1JFBltpSPtL05I1BzStGHgQCFXwD5+8g+Y/I3mOfQdeg9K5i+KGZamKeIkhZoWIHJWp8w&#xA;djQgjFWOYq7FXrn5DfkNqn5jaoL+/Eln5Ss5KXl4NnncbmCAnv8AzN0Ue9Bir7s0fR9L0bS7bStK&#xA;to7PTrOMRW1tEKIiDsP1kncnc4qjMVdirsVdirsVdirsVdirsVdirsVdirsVdirsVdirsVdirsVS&#xA;3zJ5b0TzLol1omt2qXum3qcJ4H79wykbqyndWG4O4xV8E/nd+SetflprYFXvPLd65/Repkb+PoT0&#xA;2WVR9DDcdwqqS/lZ+VnmP8xvMaaRpCelbRcX1LUnUmG2hJ+03Tk7UIRAasfAAkKvv/yB5A8ueRfL&#xA;kGg6DB6VvF8U87UM08xADTTMAOTNT5AbCgAGKsjxV2KuxV2KsM/NT8q/Ln5jeXH0nVk9K6i5Ppup&#xA;IoMttKR9penJGoOaVow8CAQq+AfP3kHzH5G8xz6Dr0HpXMXxQzLUxTxEkLNCxA5K1PmDsaEEYqzn&#xA;8hvyG1T8xtUF/fiSz8pWclLy8GzzuNzBAT3/AJm6KPegxV92aPo+l6NpdtpWlW0dnp1nGIra2iFE&#xA;RB2H6yTuTucVRmKuxV2KuxV2KuxV2KuxV2KuxV2KuxV2KuxV2KuxV2KuxV2KuxV2KpV5p8raF5p0&#xA;K60PXLVbvTrteMsTdQf2XRuqup3Vh0xVBeQvIPlryL5dg0HQLf0rWP45pno008pFGlmcAcnanhQD&#xA;YAAAYqyLFXYq7FXYq7FXYqxP8xvyv8o/mDpMWneYrZnFvIJbW6hIS4iNRzCSUNFkUcWFKH5gEKsg&#xA;0fR9L0bS7bStKto7PTrOMRW1tEKIiDsP1kncnc4qjMVdirsVdirsVdirsVdirsVdirsVdirsVdir&#xA;sVdirsVdirsVdirsVdirsVdirsVdirsVdirsVdirsVdirsVdirsVdirsVdirsVdirsVdirsVf//Z</xmpGImg:image>
               </rdf:li>
            </rdf:Alt>
         </xmp:Thumbnails>
      </rdf:Description>
      <rdf:Description rdf:about=""
            xmlns:xmpTPg="http://ns.adobe.com/xap/1.0/t/pg/"
            xmlns:stDim="http://ns.adobe.com/xap/1.0/sType/Dimensions#"
            xmlns:xmpG="http://ns.adobe.com/xap/1.0/g/">
         <xmpTPg:NPages>1</xmpTPg:NPages>
         <xmpTPg:HasVisibleTransparency>False</xmpTPg:HasVisibleTransparency>
         <xmpTPg:HasVisibleOverprint>False</xmpTPg:HasVisibleOverprint>
         <xmpTPg:MaxPageSize rdf:parseType="Resource">
            <stDim:w>0.410655</stDim:w>
            <stDim:h>0.317500</stDim:h>
            <stDim:unit>Centimeters</stDim:unit>
         </xmpTPg:MaxPageSize>
         <xmpTPg:PlateNames>
            <rdf:Seq>
               <rdf:li>Cyan</rdf:li>
               <rdf:li>Magenta</rdf:li>
               <rdf:li>Yellow</rdf:li>
               <rdf:li>Black</rdf:li>
            </rdf:Seq>
         </xmpTPg:PlateNames>
         <xmpTPg:SwatchGroups>
            <rdf:Seq>
               <rdf:li rdf:parseType="Resource">
                  <xmpG:groupName>Grupo de muestras por defecto</xmpG:groupName>
                  <xmpG:groupType>0</xmpG:groupType>
               </rdf:li>
               <rdf:li rdf:parseType="Resource">
                  <xmpG:groupName>Grupo de colores 1</xmpG:groupName>
                  <xmpG:groupType>1</xmpG:groupType>
                  <xmpG:Colorants>
                     <rdf:Seq>
                        <rdf:li rdf:parseType="Resource">
                           <xmpG:swatchName>R=252 G=252 B=252</xmpG:swatchName>
                           <xmpG:mode>RGB</xmpG:mode>
                           <xmpG:type>PROCESS</xmpG:type>
                           <xmpG:red>252</xmpG:red>
                           <xmpG:green>252</xmpG:green>
                           <xmpG:blue>252</xmpG:blue>
                        </rdf:li>
                     </rdf:Seq>
                  </xmpG:Colorants>
               </rdf:li>
            </rdf:Seq>
         </xmpTPg:SwatchGroups>
      </rdf:Description>
      <rdf:Description rdf:about=""
            xmlns:pdf="http://ns.adobe.com/pdf/1.3/">
         <pdf:Producer>Adobe PDF library 10.01</pdf:Producer>
      </rdf:Description>
   </rdf:RDF>
</x:xmpmeta>
                                                                                                    
                                                                                                    
                                                                                                    
                                                                                                    
                                                                                                    
                                                                                                    
                                                                                                    
                                                                                                    
                                                                                                    
                                                                                                    
                                                                                                    
                                                                                                    
                                                                                                    
                                                                                                    
                                                                                                    
                                                                                                    
                                                                                                    
                                                                                                    
                                                                                                    
                                                                                                    
                           
<?xpacket end="w"?>
	</metadata>
<g>
	<polygon stroke="#FFFFFF" stroke-width="0.25" stroke-miterlimit="10" points="0.078,4.519 4.392,0.184 5.844,1.622 2.961,4.519 
		4.407,6.01 7.252,3.096 8.706,4.519 4.392,8.9 	"/>
	<polygon stroke="#FFFFFF" stroke-width="0.25" stroke-miterlimit="10" points="2.961,4.519 4.407,6.01 7.252,3.096 8.706,4.519 
		5.833,7.436 7.297,8.9 11.641,4.541 7.301,0.184 	"/>
</g>
</svg>
